3 1000 44100
   1.7731719951617913e-04  -0.0000000000000000e+00  -5.3195159854853736e-04  -0.0000000000000000e+00   5.3195159854853736e-04  -0.0000000000000000e+00  -1.7731719951617913e-04
   1.0000000000000000e+00  -5.7082588447673759e+00   1.3636275937392865e+01  -1.7449299770019270e+01   1.2614659811768700e+01  -4.8851219777537453e+00   7.9175227386085889e-01

3 125 44100
   3.8228575946437241e-07  -0.0000000000000000e+00  -1.1468572783931173e-06  -0.0000000000000000e+00   1.1468572783931173e-06  -0.0000000000000000e+00  -3.8228575946437241e-07
   1.0000000000000000e+00  -5.9698816265932662e+00   1.4850797636918696e+01  -1.9704352119266918e+01   1.4707087239982661e+01  -5.8549005338864504e+00   9.7124940287672501e-01

3 2000 44100
   1.2747152172414621e-03  -0.0000000000000000e+00  -3.8241456517243864e-03  -0.0000000000000000e+00   3.8241456517243864e-03  -0.0000000000000000e+00  -1.2747152172414621e-03
   1.0000000000000000e+00  -5.3100841978153923e+00   1.1960878592571227e+01  -1.4621788664588017e+01   1.0230920900470053e+01  -3.8858708702353946e+00   6.2636510596198980e-01

3 250 44100
   3.0145283858256086e-06  -0.0000000000000000e+00  -9.0435851574768266e-06  -0.0000000000000000e+00   9.0435851574768266e-06  -0.0000000000000000e+00  -3.0145283858256086e-06
   1.0000000000000000e+00  -5.9378896086508473e+00   1.4695057112942454e+01  -1.9401150699524646e+01   1.4412012528583364e+01  -5.7113532699474456e+00   9.4332393858034624e-01

3 4000 44100
   8.3848174145571466e-03   0.0000000000000000e+00  -2.5154452243671441e-02   0.0000000000000000e+00   2.5154452243671441e-02   0.0000000000000000e+00  -8.3848174145571466e-03
   1.0000000000000000e+00  -4.2572032173771550e+00   8.1834233517456845e+00  -8.9986587508825586e+00   5.9686875138610702e+00  -2.2650741661129290e+00   3.8965361463135417e-01

3 500 44100
   2.3437674697045381e-05  -0.0000000000000000e+00  -7.0313024091136125e-05  -0.0000000000000000e+00   7.0313024091136125e-05  -0.0000000000000000e+00  -2.3437674697045381e-05
   1.0000000000000000e+00  -5.8684031588320371e+00   1.4364873384048618e+01  -1.8773940352537050e+01   1.3816725265636638e+01  -5.4291040111474294e+00   8.8984899606920909e-01

3 62.5 44100
   4.8140677988693226e-08  -0.0000000000000000e+00  -1.4442203396607968e-07  -0.0000000000000000e+00   1.4442203396607968e-07  -0.0000000000000000e+00  -4.8140677988693226e-08
   1.0000000000000000e+00  -5.9851768611384895e+00   1.4926230112973297e+01  -1.9853149104699924e+01   1.4853835274973248e+01  -5.9272593819549426e+00   9.8551995984730345e-01

3 8000 44100
   4.8395727126094919e-02   0.0000000000000000e+00  -1.4518718137828476e-01   0.0000000000000000e+00   1.4518718137828476e-01   0.0000000000000000e+00  -4.8395727126094919e-02
   1.0000000000000000e+00  -1.5566364873481209e+00   2.0203088899982689e+00  -1.5611863808315143e+00   1.1250399191502822e+00  -4.2056581724313613e-01   1.4075967958754695e-01
